module go-attendance

go 1.20

require (
	entgo.io/ent v0.12.2
	github.com/labstack/echo/v4 v4.10.2
	github.com/lib/pq v1.10.9
)

require (
	ariga.io/atlas v0.10.0 // indirect
	github.com/agext/levenshtein v1.2.1 // indirect
	github.com/apparentlymart/go-textseg/v13 v13.0.0 // indirect
	github.com/dgrijalva/jwt-go v3.2.0+incompatible // indirect
	github.com/go-openapi/inflect v0.19.0 // indirect
	github.com/google/go-cmp v0.5.6 // indirect
	github.com/google/uuid v1.3.0 // indirect
	github.com/hashicorp/hcl/v2 v2.13.0 // indirect
	github.com/labstack/echo v3.3.10+incompatible
	github.com/labstack/gommon v0.4.0 // indirect
	github.com/mattn/go-colorable v0.1.13 // indirect
	github.com/mattn/go-isatty v0.0.17 // indirect
	github.com/mitchellh/go-wordwrap v0.0.0-20150314170334-ad45545899c7 // indirect
	github.com/valyala/bytebufferpool v1.0.0 // indirect
	github.com/valyala/fasttemplate v1.2.2 // indirect
	github.com/zclconf/go-cty v1.8.0 // indirect
	golang.org/x/crypto v0.8.0 // indirect
	golang.org/x/mod v0.8.0 // indirect
	golang.org/x/net v0.9.0 // indirect
	golang.org/x/sys v0.7.0 // indirect
	golang.org/x/text v0.9.0 // indirect
)
